{
com.badlogic.gdx.graphics.g2d.BitmapFont: {
	latoLightFnt: {
		file: latoLightFnt.fnt
	}
}
com.badlogic.gdx.graphics.Color: {
	black: {
		r: 0
		g: 0
		b: 0
		a: 1
	}
	white: {
		r: 1
		g: 1
		b: 1
		a: 1
	}
}
com.badlogic.gdx.scenes.scene2d.ui.TextButton$TextButtonStyle: {
	midStdBtn: {
		font: latoLightFnt
		fontColor: black
		downFontColor: white
		up: midStdBtn
		down: midPressedBtn
	}
	midCheckedBtn: {
		font: latoLightFnt
		fontColor: black
		downFontColor: white
		checkedFontColor: white
		up: midStdBtn
		down: midPressedBtn
		checked: midPressedBtn
	}
	smallStdBtn: {
		font: latoLightFnt
		fontColor: black
		downFontColor: white
		up: smallStdBtn
		down: smallPressedBtn
	}
	smallCheckedBtn: {
		font: latoLightFnt
		fontColor: black
		downFontColor: white
		checkedFontColor: white
		up: smallStdBtn
		down: smallPressedBtn
		checked: smallPressedBtn
	}
	sqrStdBtn: {
		font: latoLightFnt
		fontColor: black
		downFontColor: white
		up: sqrStdBtn
		down: sqrPressedBtn
	}
}
}